ST 558 Homework 4
…
myWrapper(resp,iris)

Error in myWrapper(resp, iris): Prediction provided is not a numerical atomic vector

Task 3: Querying an API and a Tidy-Style Function

To query the News API, we first look into the website documentation and determine a few variables we can specify in our URL. For my initial query, I decided to select the subject of “Elon Musk” as I assumed there would be many articles based on the recent Tesla compensation package drama. Additionally, I decided to sort the results by popularity, and I used the API I recieved after registering on the website. We then translate this query into usable parsed data, eventually returning a dataframe with the actual information on each article.

URL <- "https://newsapi.org/v2/everything?q=Elon%20Musk&sortBY=popularity&apiKey=6817506ff35546e58c629710b46cafd1"
news <- GET(URL)
parsed <- fromJSON(rawToChar(news$content))
articleInfo <- as_tibble(parsed$articles)
articleInfo

# A tibble: 100 × 8
   source$id $name author title description url   urlToImage publishedAt content
   <chr>     <chr> <chr>  <chr> <chr>       <chr> <chr>      <chr>       <chr>  
 1 <NA>      Yaho… Steve… WSJ … "Warning: … http… <NA>       2024-06-12… If you…
 2 <NA>      [Rem… <NA>   [Rem… "[Removed]" http… <NA>       1970-01-01… [Remov…
 3 <NA>      [Rem… <NA>   [Rem… "[Removed]" http… <NA>       1970-01-01… [Remov…
 4 <NA>      [Rem… <NA>   [Rem… "[Removed]" http… <NA>       1970-01-01… [Remov…
 5 <NA>      Yaho… Prana… Musk… "Elon Musk… http… <NA>       2024-06-11… If you…
 6 <NA>      Yaho… Danie… The … "A number … http… <NA>       2024-06-13… If you…
 7 <NA>      [Rem… <NA>   [Rem… "[Removed]" http… <NA>       1970-01-01… [Remov…
 8 <NA>      Yaho… Karis… X is… "X will so… http… <NA>       2024-06-21… If you…
 9 <NA>      Yaho… Marie… X is… "Thanks to… http… <NA>       2024-06-12… If you…
10 <NA>      Yaho… Steve… Bill… "Yusaku Ma… http… <NA>       2024-06-03… If you…
# ℹ 90 more rows

Next we develop a function to complete these queries automatically, allowing the user to specific a topic of interest, a publishing date when the search should begin, and adding their own API key. We then complete two test queries, one checking for articles on the Olympics since June 1st, and one checking for articles on Dogs since June 15th.

queryNewsapi <- function(topic,date,key){
  URL <- paste("https://newsapi.org/v2/everything?q=",topic,"&from=",date,"&apiKey=",key,sep='')
  news <- GET(URL)
  parsed <- fromJSON(rawToChar(news$content))
  articleInfo <- as_tibble(parsed$articles)
  articleInfo
}

queryNewsapi("Olympics","2024-06-01","6817506ff35546e58c629710b46cafd1")

# A tibble: 100 × 8
   source$id $name author title description url   urlToImage publishedAt content
   <chr>     <chr> <chr>  <chr> <chr>       <chr> <chr>      <chr>       <chr>  
 1 <NA>      Andr… techk… Sams… "Samsung h… http… https://c… 2024-06-21… "What …
 2 the-verge The … Anton… You … "NBCUniver… http… https://c… 2024-06-03… "You c…
 3 <NA>      BBC … BBC S… Murr… "Britain's… http… https://i… 2024-06-21… "Andy …
 4 <NA>      NPR   Rache… Pari… "The U.S. … http… https://n… 2024-06-24… "A mon…
 5 <NA>      NPR   Brian… Gabr… "At age 46… http… https://n… 2024-06-24… "When …
 6 <NA>      NPR   Carri… Meet… "Brazil ha… http… https://m… 2024-06-24… "Brazi…
 7 <NA>      BBC … <NA>   Olym… "Matt Rich… http… https://i… 2024-06-15… "By Ai…
 8 espn      ESPN  Micha… Wing… "Wings sta… http… https://a… 2024-06-16… "Dalla…
 9 business… Busi… Myken… Phot… "Ralph Lau… http… https://i… 2024-06-21… "Team …
10 business… Busi… Myken… 12 i… "Ilona Mah… http… https://i… 2024-06-20… "Olymp…
# ℹ 90 more rows

queryNewsapi("Dogs","2024-06-15","6817506ff35546e58c629710b46cafd1")

# A tibble: 100 × 8
   source$id $name author title description url   urlToImage publishedAt content
   <chr>     <chr> <chr>  <chr> <chr>       <chr> <chr>      <chr>       <chr>  
 1 <NA>      BBC … <NA>   Peop… "A fire br… http… https://i… 2024-06-22… "By He…
 2 <NA>      BBC … <NA>   Man … "Neighbour… http… https://i… 2024-06-17… "A man…
 3 abc-news  ABC … JEFF … 38 d… "A trio of… http… https://i… 2024-06-21… "ATLAN…
 4 <NA>      The … Alexa… Woul… "Since 200… http… https://m… 2024-06-24… "A few…
 5 <NA>      Unda… Undar… Is h… "It turns … http… https://c… 2024-06-24… "70\r\…
 6 time      Time  Jessi… The … "Pets are … http… https://a… 2024-06-23… "By da…
 7 <NA>      HYPE… info@… NEIG… "Continuin… http… https://i… 2024-06-15… "Conti…
 8 <NA>      Advn… Cat E… Yell… "There's a… http… https://s… 2024-06-24… "A car…
 9 <NA>      Yaho… Sean … Chie… "Buggs has… http… https://s… 2024-06-24… "Isaia…
10 <NA>      Thek… Kiers… This… "It’s bril… http… https://c… 2024-06-22… "We in…
# ℹ 90 more rows
